{
    "firstname" : "sylvia",
    "lastname" : "boshra",
    "mobile" : "01200973414",
    "gender" : "female",
    "email" : "sylviaboshra@hotmail.com",
    "password": "Hello1234",
    "age": 30
  }
  